[{"page":1,"pages":2,"per_page":"50","total":59},[{"indicator":{"id":"GC.DOD.TOTL.GD.ZS","value":"Central government debt, total (% of GDP)"},"country":{"id":"AU","value":"Australia"},"value":"24.0959642438779","decimal":"1","date":"2009"},{"indicator":{"id":"GC.DOD.TOTL.GD.ZS","value":"Central government debt, total (% of GDP)"},"country":{"id":"AU","value":"Australia"},"value":"18.4224873419821","decimal":"1","date":"2008"},{"indicator":{"id":"GC.DOD.TOTL.GD.ZS","value":"Central government debt, total (% of GDP)"},"country":{"id":"AU","value":"Australia"},"value":"20.3475111621028","decimal":"1","date":"2007"},{"indicator":{"id":"GC.DOD.TOTL.GD.ZS","value":"Central government debt, total (% of GDP)"},"country":{"id":"AU","value":"Australia"},"value":"21.6627381821578","decimal":"1","date":"2006"},{"indicator":{"id":"GC.DOD.TOTL.GD.ZS","value":"Central government debt, total (% of GDP)"},"country":{"id":"AU","value":"Australia"},"value":"22.5321049935312","decimal":"1","date":"2005"},{"indicator":{"id":"GC.DOD.TOTL.GD.ZS","value":"Central government debt, total (% of GDP)"},"country":{"id":"AU","value":"Australia"},"value":"22.9942514371407","decimal":"1","date":"2004"},{"indicator":{"id":"GC.DOD.TOTL.GD.ZS","value":"Central government debt, total (% of GDP)"},"country":{"id":"AU","value":"Australia"},"value":"25.1927237118862","decimal":"1","date":"2003"},{"indicator":{"id":"GC.DOD.TOTL.GD.ZS","value":"Central government debt, total (% of GDP)"},"country":{"id":"AU","value":"Australia"},"value":"25.9966602249772","decimal":"1","date":"2002"},{"indicator":{"id":"GC.DOD.TOTL.GD.ZS","value":"Central government debt, total (% of GDP)"},"country":{"id":"AU","value":"Australia"},"value":"27.8248383151287","decimal":"1","date":"2001"},{"indicator":{"id":"GC.DOD.TOTL.GD.ZS","value":"Central government debt, total (% of GDP)"},"country":{"id":"AU","value":"Australia"},"value":"29.6038943254159","decimal":"1","date":"2000"},{"indicator":{"id":"GC.DOD.TOTL.GD.ZS","value":"Central government debt, total (% of GDP)"},"country":{"id":"AU","value":"Australia"},"value":"31.1666163817096","decimal":"1","date":"1999"},{"indicator":{"id":"GC.DOD.TOTL.GD.ZS","value":"Central government debt, total (% of GDP)"},"country":{"id":"AU","value":"Australia"},"value":"16.9103056128496","decimal":"1","date":"1998"},{"indicator":{"id":"GC.DOD.TOTL.GD.ZS","value":"Central government debt, total (% of GDP)"},"country":{"id":"AU","value":"Australia"},"value":"20.9115580839596","decimal":"1","date":"1997"},{"indicator":{"id":"GC.DOD.TOTL.GD.ZS","value":"Central government debt, total (% of GDP)"},"country":{"id":"AU","value":"Australia"},"value":"21.8677442527374","decimal":"1","date":"1996"},{"indicator":{"id":"GC.DOD.TOTL.GD.ZS","value":"Central government debt, total (% of GDP)"},"country":{"id":"AU","value":"Australia"},"value":"21.7363875875261","decimal":"1","date":"1995"},{"indicator":{"id":"GC.DOD.TOTL.GD.ZS","value":"Central government debt, total (% of GDP)"},"country":{"id":"AU","value":"Australia"},"value":"20.2264343778315","decimal":"1","date":"1994"},{"indicator":{"id":"GC.DOD.TOTL.GD.ZS","value":"Central government debt, total (% of GDP)"},"country":{"id":"AU","value":"Australia"},"value":"17.9085996282997","decimal":"1","date":"1993"},{"indicator":{"id":"GC.DOD.TOTL.GD.ZS","value":"Central government debt, total (% of GDP)"},"country":{"id":"AU","value":"Australia"},"value":"14.1734072848388","decimal":"1","date":"1992"},{"indicator":{"id":"GC.DOD.TOTL.GD.ZS","value":"Central government debt, total (% of GDP)"},"country":{"id":"AU","value":"Australia"},"value":"11.9414578604184","decimal":"1","date":"1991"},{"indicator":{"id":"GC.DOD.TOTL.GD.ZS","value":"Central government debt, total (% of GDP)"},"country":{"id":"AU","value":"Australia"},"value":"12.2507637386306","decimal":"1","date":"1990"},{"indicator":{"id":"GC.DOD.TOTL.GD.ZS","value":"Central government debt, total (% of GDP)"},"country":{"id":"AU","value":"Australia"},"value":null,"decimal":"1","date":"1989"},{"indicator":{"id":"GC.DOD.TOTL.GD.ZS","value":"Central government debt, total (% of GDP)"},"country":{"id":"AU","value":"Australia"},"value":null,"decimal":"1","date":"1988"},{"indicator":{"id":"GC.DOD.TOTL.GD.ZS","value":"Central government debt, total (% of GDP)"},"country":{"id":"AU","value":"Australia"},"value":null,"decimal":"1","date":"1987"},{"indicator":{"id":"GC.DOD.TOTL.GD.ZS","value":"Central government debt, total (% of GDP)"},"country":{"id":"AU","value":"Australia"},"value":null,"decimal":"1","date":"1986"},{"indicator":{"id":"GC.DOD.TOTL.GD.ZS","value":"Central government debt, total (% of GDP)"},"country":{"id":"AU","value":"Australia"},"value":null,"decimal":"1","date":"1985"},{"indicator":{"id":"GC.DOD.TOTL.GD.ZS","value":"Central government debt, total (% of GDP)"},"country":{"id":"AU","value":"Australia"},"value":null,"decimal":"1","date":"1984"},{"indicator":{"id":"GC.DOD.TOTL.GD.ZS","value":"Central government debt, total (% of GDP)"},"country":{"id":"AU","value":"Australia"},"value":null,"decimal":"1","date":"1983"},{"indicator":{"id":"GC.DOD.TOTL.GD.ZS","value":"Central government debt, total (% of GDP)"},"country":{"id":"AU","value":"Australia"},"value":null,"decimal":"1","date":"1982"},{"indicator":{"id":"GC.DOD.TOTL.GD.ZS","value":"Central government debt, total (% of GDP)"},"country":{"id":"AU","value":"Australia"},"value":null,"decimal":"1","date":"1981"},{"indicator":{"id":"GC.DOD.TOTL.GD.ZS","value":"Central government debt, total (% of GDP)"},"country":{"id":"AU","value":"Australia"},"value":null,"decimal":"1","date":"1980"},{"indicator":{"id":"GC.DOD.TOTL.GD.ZS","value":"Central government debt, total (% of GDP)"},"country":{"id":"AU","value":"Australia"},"value":null,"decimal":"1","date":"1979"},{"indicator":{"id":"GC.DOD.TOTL.GD.ZS","value":"Central government debt, total (% of GDP)"},"country":{"id":"AU","value":"Australia"},"value":null,"decimal":"1","date":"1978"},{"indicator":{"id":"GC.DOD.TOTL.GD.ZS","value":"Central government debt, total (% of GDP)"},"country":{"id":"AU","value":"Australia"},"value":null,"decimal":"1","date":"1977"},{"indicator":{"id":"GC.DOD.TOTL.GD.ZS","value":"Central government debt, total (% of GDP)"},"country":{"id":"AU","value":"Australia"},"value":null,"decimal":"1","date":"1976"},{"indicator":{"id":"GC.DOD.TOTL.GD.ZS","value":"Central government debt, total (% of GDP)"},"country":{"id":"AU","value":"Australia"},"value":null,"decimal":"1","date":"1975"},{"indicator":{"id":"GC.DOD.TOTL.GD.ZS","value":"Central government debt, total (% of GDP)"},"country":{"id":"AU","value":"Australia"},"value":null,"decimal":"1","date":"1974"},{"indicator":{"id":"GC.DOD.TOTL.GD.ZS","value":"Central government debt, total (% of GDP)"},"country":{"id":"AU","value":"Australia"},"value":null,"decimal":"1","date":"1973"},{"indicator":{"id":"GC.DOD.TOTL.GD.ZS","value":"Central government debt, total (% of GDP)"},"country":{"id":"AU","value":"Australia"},"value":null,"decimal":"1","date":"1972"},{"indicator":{"id":"GC.DOD.TOTL.GD.ZS","value":"Central government debt, total (% of GDP)"},"country":{"id":"AU","value":"Australia"},"value":null,"decimal":"1","date":"1971"},{"indicator":{"id":"GC.DOD.TOTL.GD.ZS","value":"Central government debt, total (% of GDP)"},"country":{"id":"AU","value":"Australia"},"value":null,"decimal":"1","date":"1970"},{"indicator":{"id":"GC.DOD.TOTL.GD.ZS","value":"Central government debt, total (% of GDP)"},"country":{"id":"AU","value":"Australia"},"value":null,"decimal":"1","date":"1969"},{"indicator":{"id":"GC.DOD.TOTL.GD.ZS","value":"Central government debt, total (% of GDP)"},"country":{"id":"AU","value":"Australia"},"value":null,"decimal":"1","date":"1968"},{"indicator":{"id":"GC.DOD.TOTL.GD.ZS","value":"Central government debt, total (% of GDP)"},"country":{"id":"AU","value":"Australia"},"value":null,"decimal":"1","date":"1967"},{"indicator":{"id":"GC.DOD.TOTL.GD.ZS","value":"Central government debt, total (% of GDP)"},"country":{"id":"AU","value":"Australia"},"value":null,"decimal":"1","date":"1966"},{"indicator":{"id":"GC.DOD.TOTL.GD.ZS","value":"Central government debt, total (% of GDP)"},"country":{"id":"AU","value":"Australia"},"value":null,"decimal":"1","date":"1965"},{"indicator":{"id":"GC.DOD.TOTL.GD.ZS","value":"Central government debt, total (% of GDP)"},"country":{"id":"AU","value":"Australia"},"value":null,"decimal":"1","date":"1964"},{"indicator":{"id":"GC.DOD.TOTL.GD.ZS","value":"Central government debt, total (% of GDP)"},"country":{"id":"AU","value":"Australia"},"value":null,"decimal":"1","date":"1963"},{"indicator":{"id":"GC.DOD.TOTL.GD.ZS","value":"Central government debt, total (% of GDP)"},"country":{"id":"AU","value":"Australia"},"value":null,"decimal":"1","date":"1962"},{"indicator":{"id":"GC.DOD.TOTL.GD.ZS","value":"Central government debt, total (% of GDP)"},"country":{"id":"AU","value":"Australia"},"value":null,"decimal":"1","date":"1961"},{"indicator":{"id":"GC.DOD.TOTL.GD.ZS","value":"Central government debt, total (% of GDP)"},"country":{"id":"AU","value":"Australia"},"value":null,"decimal":"1","date":"1960"}]]